{
  $schema: "https://docs.renovatebot.com/renovate-schema.json",
  extends: [
    "config:base",
    ":dependencyDashboard",
    ":preserveSemverRanges",
  ],
  pinDigests: true,
  prCreation: "immediate",

  digest: {
    automerge: true,
    gitLabAutomerge: true,
    labels: ["renovate", "digest", "automerge"]
  },

  patch: {
    automerge: true,
    gitLabAutomerge: true,
    labels: ["renovate", "patch", "automerge"]
  },

  minor: {
    automerge: true,
    gitLabAutomerge: true,
    labels: ["renovate", "patch", "automerge"]
  },

  packageRules: [
    {
      matchPackagePrefixes: ["docker"],
      matchDatasources: ["docker"],
      groupName: "base images: docker"
    }
  ],

  labels: ["renovate"],

  enabledManagers: [
    "dockerfile",
    "gitlabci"
  ]
}
